/* XPM */
static char * title_3_active_xpm[] = {
"2 26 3 1",
" 	c None",
".	c #e19823",
"+	c #141414",
"..",
"++",
"++",
"++",
"++",
"++",
"++",
"++",
"++",
"++",
"++",
"++",
"++",
"++",
"++",
"++",
"++",
"++",
"++",
"++",
"++",
"++",
"++",
"++",
"++",
"++"};
